/* XPM */
static char * maximize_pressed_xpm[] = {
"20 30 53 1",
" 	c None",
".	c #3F51B5",
"+	c #3C68A7",
"@	c #378D7F",
"#	c #33A059",
"$	c #31A83B",
"%	c #378E80",
"&	c #3C69A7",
"*	c #3E56B3",
"=	c #378F7D",
"-	c #2FAD31",
";	c #2CBA36",
">	c #29C33C",
",	c #28C73F",
"'	c #2FAC32",
")	c #378E7E",
"!	c #3F55B3",
"~	c #349967",
"{	c #2DB532",
"]	c #28C83F",
"^	c #28C940",
"/	c #2DB533",
"(	c #359A68",
"_	c #368F7D",
":	c #378F7E",
"<	c #29C73E",
"[	c #2FAD32",
"}	c #3D68A7",
"|	c #22B334",
"1	c #16931F",
"2	c #22B434",
"3	c #2CBA37",
"4	c #378C81",
"5	c #33A058",
"6	c #2AC43C",
"7	c #0C7409",
"8	c #0B7407",
"9	c #339F59",
"0	c #31A83C",
"a	c #16921E",
"b	c #31A83E",
"c	c #17931F",
"d	c #31A83F",
"e	c #0C7509",
"f	c #22B534",
"g	c #388D81",
"h	c #29C73F",
"i	c #3D67A8",
"j	c #2EB533",
"k	c #349A68",
"l	c #349969",
"m	c #3F53B4",
"n	c #29C43C",
"....................",
"....................",
"....................",
"....................",
"....................",
"....................",
"....................",
"......+@#$$#%&......",
"....*=-;>,,>;')!....",
"...*~{]^^^^^^]/(!...",
"..._{^^^^^^^^^^/:...",
"..+-]^^^^^^^^^^<[}..",
"..@;^^^^|112^^^^34..",
"..56^^^|78872^^^>9..",
"..0]^^^a88881^^^]b..",
"..b]^^^18888c^^^<d..",
"..5>^^^2788ef^^^>9..",
"..%;^^^^211f^^^^;g..",
"..&']^^^^^^^^^^h[i..",
"...)/^^^^^^^^^^j@...",
"...!k/<^^^^^^hjlm...",
"....!:[3n]]n;[@m....",
"......}49009gi......",
"....................",
"....................",
"....................",
"....................",
"....................",
"....................",
"...................."};
