/* XPM */
static char * top_left_inactive_xpm[] = {
"2 30 2 1",
" 	c None",
".	c #3F51B5",
" .",
"..",
"..",
"..",
"..",
"..",
"..",
"..",
"..",
"..",
"..",
"..",
"..",
"..",
"..",
"..",
"..",
"..",
"..",
"..",
"..",
"..",
"..",
"..",
"..",
"..",
"..",
"..",
"..",
".."};
