/* XPM */
static char * close_inactive_xpm[] = {
"20 30 24 1",
" 	c None",
".	c #008080",
"+	c #428A8A",
"@	c #9BB0B0",
"#	c #BEC5C5",
"$	c #CDCECE",
"%	c #9AAFAF",
"&	c #80A1A1",
"*	c #CDCFCF",
"=	c #D6D6D6",
"-	c #DADADA",
";	c #DCDCDC",
">	c #7EA1A1",
",	c #D2D2D2",
"'	c #CED0D0",
")	c #408989",
"!	c #D5D5D5",
"~	c #BEC4C4",
"{	c #D9D9D9",
"]	c #CCCECE",
"^	c #DBDBDB",
"/	c #CBCDCD",
"(	c #3D8888",
"_	c #7CA0A0",
"....................",
"....................",
"....................",
"....................",
"....................",
"....................",
"....................",
"....................",
"......+@#$$#%+......",
".....&*=-;;-=*>.....",
"....&,-;;;;;;-,>....",
"...+*-;;;;;;;;-')...",
"...@=;;;;;;;;;;!@...",
"...~{;;;;;;;;;;-#...",
"...$;;;;;;;;;;;;]...",
"...];;;;;;;;;;;^*...",
"...#{;;;;;;;;;;-#...",
"...%=;;;;;;;;;;!@...",
"...+*-;;;;;;;;-/(...",
"....>,-;;;;;;-,_....",
".....>*!-;;-!/_.....",
"......)@~$$~@(......",
"....................",
"....................",
"....................",
"....................",
"....................",
"....................",
"....................",
"...................."};
