/* XPM */
static char * maximize_pressed_xpm[] = {
"20 30 86 1",
" 	c None",
".	c #247648",
"+	c #237547",
"@	c #227446",
"#	c #248042",
"$	c #2A9639",
"%	c #2EA332",
"&	c #2FA92D",
"*	c #2B9739",
"=	c #248043",
"-	c #217345",
";	c #217644",
">	c #2A9838",
",	c #2FAD2E",
"'	c #2CBA36",
")	c #29C33C",
"!	c #28C73F",
"~	c #2FAC2E",
"{	c #2A9738",
"]	c #217545",
"^	c #2D9E34",
"/	c #2DB532",
"(	c #28C83F",
"_	c #28C940",
":	c #2DB533",
"<	c #2D9F34",
"[	c #2B9738",
"}	c #207244",
"|	c #237E41",
"1	c #29C73E",
"2	c #2FAD2D",
"3	c #237E40",
"4	c #207144",
"5	c #299638",
"6	c #22B334",
"7	c #16931F",
"8	c #22B434",
"9	c #2CBA37",
"0	c #2A9538",
"a	c #1F7143",
"b	c #2EA331",
"c	c #2AC43C",
"d	c #0C7409",
"e	c #0B7407",
"f	c #2EA231",
"g	c #1F7043",
"h	c #16921E",
"i	c #1E7042",
"j	c #17931F",
"k	c #2FA82E",
"l	c #1E6F42",
"m	c #2EA330",
"n	c #0C7509",
"o	c #22B534",
"p	c #2DA231",
"q	c #1D6E41",
"r	c #299536",
"s	c #299436",
"t	c #217C3E",
"u	c #29C73F",
"v	c #217B3E",
"w	c #1C6D40",
"x	c #2EB533",
"y	c #289436",
"z	c #1C6F40",
"A	c #2B9E31",
"B	c #2C9D32",
"C	c #1D6E40",
"D	c #1B6C3F",
"E	c #1B6E3F",
"F	c #299535",
"G	c #29C43C",
"H	c #289435",
"I	c #1C6D3F",
"J	c #1B6B3F",
"K	c #1F793C",
"L	c #289335",
"M	c #2DA130",
"N	c #299335",
"O	c #20783C",
"P	c #1B6B3E",
"Q	c #1A6A3E",
"R	c #1A6A3D",
"S	c #19693D",
"T	c #19683C",
"U	c #18673B",
"....................",
"....................",
"++++++++++++++++++++",
"++++++++++++++++++++",
"++++++++++++++++++++",
"@@@@@@@@@@@@@@@@@@@@",
"@@@@@@@@@@@@@@@@@@@@",
"@@@@@@#$%&&%*=@@@@@@",
"----;>,')!!)'~{]----",
"---;^/(______(:<]---",
"---{/__________:[---",
"}}|,(__________123}}",
"445'____6778____9044",
"aabc___6deed8___)faa",
"gg&(___heeee7___(&gg",
"ii&(___7eeeej___1kii",
"llm)___8deeno___)pll",
"qqr'____877o____'sqq",
"qqt~(__________u,vqq",
"wwwr:__________xywww",
"wwwzA:1______uxBCwww",
"DDDDEF29G((G',HIDDDD",
"JJJJJJKLM&&MNOJJJJJJ",
"PPPPPPPPPPPPPPPPPPPP",
"QQQQQQQQQQQQQQQQQQQQ",
"RRRRRRRRRRRRRRRRRRRR",
"SSSSSSSSSSSSSSSSSSSS",
"TTTTTTTTTTTTTTTTTTTT",
"TTTTTTTTTTTTTTTTTTTT",
"UUUUUUUUUUUUUUUUUUUU"};
