/* XPM */
static char * close_pressed_xpm[] = {
"20 30 53 1",
" 	c None",
".	c #9400D3",
"+	c #A61AC3",
"@	c #C53497",
"#	c #D6406C",
"$	c #DE444E",
"%	c #C43598",
"&	c #A51AC3",
"*	c #9706D1",
"=	c #C53594",
"-	c #E44846",
";	c #F1534B",
">	c #F95A53",
",	c #FE5E56",
"'	c #F95A52",
")	c #F0534C",
"!	c #E34846",
"~	c #C63696",
"{	c #9607D1",
"]	c #D13C7C",
"^	c #EB4F47",
"/	c #FD5E56",
"(	c #FF5F57",
"_	c #EB4E47",
":	c #D13C7D",
"<	c #C63594",
"[	c #C63496",
"}	c #FD5E55",
"|	c #E34845",
"1	c #A41AC4",
"2	c #E6504D",
"3	c #C0373C",
"4	c #E7514D",
"5	c #F0524B",
"6	c #C33499",
"7	c #D73F6C",
"8	c #9F1F2C",
"9	c #9F1D2B",
"0	c #D6406D",
"a	c #DE444F",
"b	c #C0383C",
"c	c #C1373C",
"d	c #DE4450",
"e	c #C1383C",
"f	c #DE4451",
"g	c #9F1F2B",
"h	c #E8514D",
"i	c #F0534B",
"j	c #FD5D56",
"k	c #A41BC4",
"l	c #D03D7D",
"m	c #D03C7E",
"n	c #9502D1",
"....................",
"....................",
"....................",
"....................",
"....................",
"....................",
"....................",
"......+@#$$#%&......",
"....*=-;>,,')!~{....",
"...*]^/((((((/_:{...",
"...<^((((((((((_[...",
"..+-/((((((((((}|1..",
"..@;((((2334((((56..",
"..7>(((289984((('0..",
"..a,(((b9999c(((/d..",
"..d/(((39999e(((}f..",
"..7>(((4899gh((('0..",
"..%)((((4cch((((i6..",
"..&!/((((((((((j|k..",
"...~_((((((((((_@...",
"...{l_}((((((j_mn...",
"....{[|5',,'i|@n....",
"......160aa06k......",
"....................",
"....................",
"....................",
"....................",
"....................",
"....................",
"...................."};
