/* XPM */
static char * close_active_xpm[] = {
"20 30 74 1",
" 	c None",
".	c #D53D3D",
"+	c #D43C3C",
"@	c #D33B3B",
"#	c #D23B3B",
"$	c #D13A3A",
"%	c #D13939",
"&	c #D03838",
"*	c #CF3838",
"=	c #CE3737",
"-	c #CF3837",
";	c #D83F3C",
">	c #DE433E",
",	c #E0453F",
"'	c #DE443E",
")	c #D93F3B",
"!	c #CD3636",
"~	c #D43B39",
"{	c #E2463F",
"]	c #EE514A",
"^	c #F95A52",
"/	c #FE5E56",
"(	c #EE5149",
"_	c #D43C3A",
":	c #E44941",
"<	c #F95A53",
"[	c #FF5F57",
"}	c #CC3535",
"|	c #CD3735",
"1	c #E1463E",
"2	c #CE3736",
"3	c #CB3434",
"4	c #D63E3B",
"5	c #EE5049",
"6	c #D73F3A",
"7	c #CB3333",
"8	c #DE433D",
"9	c #F85952",
"0	c #DD443D",
"a	c #CA3232",
"b	c #E0453E",
"c	c #FD5E55",
"d	c #C93131",
"e	c #DD433D",
"f	c #C83030",
"g	c #D63C38",
"h	c #D53C38",
"i	c #C82F2F",
"j	c #CA3130",
"k	c #E2463E",
"l	c #E1453F",
"m	c #CB3131",
"n	c #C72E2E",
"o	c #D03735",
"p	c #CF3834",
"q	c #C72D2D",
"r	c #D03734",
"s	c #E14540",
"t	c #F85A52",
"u	c #CF3733",
"v	c #C62C2C",
"w	c #C92F2E",
"x	c #D53C37",
"y	c #DC423C",
"z	c #D43A37",
"A	c #C92E2E",
"B	c #C52B2B",
"C	c #C42A2A",
"D	c #C42929",
"E	c #C32828",
"F	c #C22727",
"G	c #C22626",
"H	c #C12525",
"I	c #C02424",
"....................",
"++++++++++++++++++++",
"@@@@@@@@@@@@@@@@@@@@",
"####################",
"$$$$$$$$$$$$$$$$$$$$",
"%%%%%%%%%%%%%%%%%%%%",
"&&&&&&&&&&&&&&&&&&&&",
"********************",
"======-;>,,')-======",
"!!!!!~{]^//^({_!!!!!",
"!!!!~:<[[[[[[<:_!!!!",
"}}}|{<[[[[[[[[<12}}}",
"3334][[[[[[[[[[56333",
"7778^[[[[[[[[[[90777",
"aaab/[[[[[[[[[[/baaa",
"aaab/[[[[[[[[[[cbaaa",
"ddde^[[[[[[[[[[9eddd",
"fffg([[[[[[[[[[5hfff",
"iiijk<[[[[[[[[<lmiii",
"nnnno:<[[[[[[<:pnnnn",
"qqqqqrs59//t5luqqqqq",
"vvvvvvwxybbyzAvvvvvv",
"BBBBBBBBBBBBBBBBBBBB",
"CCCCCCCCCCCCCCCCCCCC",
"DDDDDDDDDDDDDDDDDDDD",
"EEEEEEEEEEEEEEEEEEEE",
"FFFFFFFFFFFFFFFFFFFF",
"GGGGGGGGGGGGGGGGGGGG",
"HHHHHHHHHHHHHHHHHHHH",
"IIIIIIIIIIIIIIIIIIII"};
