/* XPM */
static char * title_2_active_xpm[] = {
"5 30 29 1",
" 	c None",
".	c #D53D3D",
"+	c #D43C3C",
"@	c #D33B3B",
"#	c #D23B3B",
"$	c #D13A3A",
"%	c #D13939",
"&	c #D03838",
"*	c #CF3838",
"=	c #CE3737",
"-	c #CD3636",
";	c #CC3535",
">	c #CB3434",
",	c #CB3333",
"'	c #CA3232",
")	c #C93131",
"!	c #C83030",
"~	c #C82F2F",
"{	c #C72E2E",
"]	c #C72D2D",
"^	c #C62C2C",
"/	c #C52B2B",
"(	c #C42A2A",
"_	c #C42929",
":	c #C32828",
"<	c #C22727",
"[	c #C22626",
"}	c #C12525",
"|	c #C02424",
".....",
"+++++",
"@@@@@",
"#####",
"$$$$$",
"%%%%%",
"&&&&&",
"*****",
"=====",
"-----",
"-----",
";;;;;",
">>>>>",
",,,,,",
"'''''",
"'''''",
")))))",
"!!!!!",
"~~~~~",
"{{{{{",
"]]]]]",
"^^^^^",
"/////",
"(((((",
"_____",
":::::",
"<<<<<",
"[[[[[",
"}}}}}",
"|||||"};
