/* XPM */
static char * close_active_xpm[] = {
"20 30 34 1",
" 	c None",
".	c #3367D6",
"+	c #5665CE",
"@	c #AA58A0",
"#	c #CE4E72",
"$	c #DD484E",
"%	c #AB58A0",
"&	c #8F5DB5",
"*	c #DE4951",
"=	c #EE514A",
"-	c #F95A52",
";	c #FE5E56",
">	c #EE5149",
",	c #8E5EB6",
"'	c #E44942",
")	c #F95A53",
"!	c #FF5F57",
"~	c #DD4952",
"{	c #5765CF",
"]	c #EE5049",
"^	c #AA58A1",
"/	c #CF4D71",
"(	c #F85952",
"_	c #DC484F",
":	c #DC4851",
"<	c #FD5E55",
"[	c #DC4852",
"}	c #A958A1",
"|	c #DC4854",
"1	c #5665CF",
"2	c #8C5EB7",
"3	c #DD4853",
"4	c #F85A52",
"5	c #CD4E73",
"....................",
"....................",
"....................",
"....................",
"....................",
"....................",
"....................",
"....................",
"......+@#$$#%+......",
".....&*=-;;->*,.....",
"....&')!!!!!!)',....",
"...+*)!!!!!!!!)~{...",
"...@=!!!!!!!!!!]^...",
".../-!!!!!!!!!!(#...",
"..._;!!!!!!!!!!;:...",
"...:;!!!!!!!!!!<[...",
"...#-!!!!!!!!!!(#...",
"...%>!!!!!!!!!!]}...",
"...+*)!!!!!!!!)|1...",
"....,')!!!!!!)'2....",
".....,3](;;4]|2.....",
"......{^5__5}1......",
"....................",
"....................",
"....................",
"....................",
"....................",
"....................",
"....................",
"...................."};
