/* XPM */
static char * maximize_inactive_xpm[] = {
"20 30 63 1",
" 	c None",
".	c #758494",
"+	c #748393",
"@	c #738293",
"#	c #738292",
"$	c #728292",
"%	c #728191",
"&	c #718191",
"*	c #718091",
"=	c #7D8A98",
"-	c #ABB0B6",
";	c #C3C5C7",
">	c #CECECF",
",	c #AAAFB5",
"'	c #708090",
")	c #9AA1AA",
"!	c #CECFCF",
"~	c #D6D6D6",
"{	c #DADADA",
"]	c #DCDCDC",
"^	c #99A1A9",
"/	c #70808F",
"(	c #9AA1A9",
"_	c #D2D2D2",
":	c #6F7F8F",
"<	c #7C8996",
"[	c #CFCFD0",
"}	c #7B8896",
"|	c #6E7E8E",
"1	c #ABAFB5",
"2	c #D5D5D5",
"3	c #6D7E8D",
"4	c #C3C4C6",
"5	c #D9D9D9",
"6	c #6C7D8C",
"7	c #CECECE",
"8	c #CDCECE",
"9	c #6C7C8B",
"0	c #DBDBDB",
"a	c #6B7B8A",
"b	c #6A7B89",
"c	c #A8ADB2",
"d	c #A9AEB3",
"e	c #697A88",
"f	c #778590",
"g	c #CDCDCE",
"h	c #75838F",
"i	c #687987",
"j	c #969DA4",
"k	c #949CA3",
"l	c #677887",
"m	c #74828F",
"n	c #A9AEB2",
"o	c #C2C4C5",
"p	c #73818E",
"q	c #667887",
"r	c #667787",
"s	c #657786",
"t	c #647686",
"u	c #637686",
"v	c #637586",
"w	c #627586",
"x	c #617486",
"....................",
"++++++++++++++++++++",
"++++++++++++++++++++",
"@@@@@@@@@@@@@@@@@@@@",
"####################",
"$$$$$$$$$$$$$$$$$$$$",
"%%%%%%%%%%%%%%%%%%%%",
"&&&&&&&&&&&&&&&&&&&&",
"******=-;>>;,=******",
"''''')!~{]]{~!^'''''",
"////(_{]]]]]]{_^////",
":::<!{]]]]]]]]{[}:::",
"|||1~]]]]]]]]]]21|||",
"33345]]]]]]]]]]{4333",
"6667]]]]]]]]]]]]8666",
"9998]]]]]]]]]]]0>999",
"aaa45]]]]]]]]]]{4aaa",
"bbbc~]]]]]]]]]]2dbbb",
"eeef!{]]]]]]]]{gheee",
"iiiij_{]]]]]]{_kiiii",
"iiiiij>2{]]{2gkiiiii",
"llllllmno77ocpllllll",
"qqqqqqqqqqqqqqqqqqqq",
"rrrrrrrrrrrrrrrrrrrr",
"ssssssssssssssssssss",
"tttttttttttttttttttt",
"uuuuuuuuuuuuuuuuuuuu",
"vvvvvvvvvvvvvvvvvvvv",
"wwwwwwwwwwwwwwwwwwww",
"xxxxxxxxxxxxxxxxxxxx"};
