/* XPM */
static char * close_prelight_xpm[] = {
"20 30 43 1",
" 	c None",
".	c #4B0082",
"+	c #63107E",
"@	c #AD3266",
"#	c #CF3F51",
"$	c #DD4444",
"%	c #CF4051",
"&	c #AE3266",
"*	c #942771",
"=	c #DE4544",
"-	c #EE514A",
";	c #F95A52",
">	c #FE5E56",
",	c #EE5149",
"'	c #E44941",
")	c #F95A53",
"!	c #FF5F57",
"~	c #DD4545",
"{	c #65117E",
"]	c #E6504D",
"^	c #C0373C",
"/	c #E7514D",
"(	c #EE5049",
"_	c #AE3267",
":	c #D03F51",
"<	c #9F1F2C",
"[	c #9F1D2B",
"}	c #F85952",
"|	c #C0383C",
"1	c #C1373C",
"2	c #DC4444",
"3	c #C1383C",
"4	c #FD5E55",
"5	c #DC4445",
"6	c #9F1F2B",
"7	c #E8514D",
"8	c #AD3067",
"9	c #DD4446",
"0	c #640D7E",
"a	c #922872",
"b	c #DD4447",
"c	c #F85A52",
"d	c #CE3F52",
"....................",
"....................",
"....................",
"....................",
"....................",
"....................",
"....................",
"....................",
"......+@#$$%&+......",
".....*=-;>>;,=*.....",
"....*')!!!!!!)'*....",
"...+=)!!!!!!!!)~{...",
"...@-!!!]^^/!!!(_...",
"...:;!!]<[[</!!}%...",
"...$>!!|[[[[1!!>2...",
"...2>!!^[[[[3!!45...",
"...#;!!/<[[67!!}%...",
"...&,!!!/117!!!(8...",
"...+=)!!!!!!!!)90...",
"....*')!!!!!!)'a....",
".....*b(}>>c(9a.....",
"......{_d$$d80......",
"....................",
"....................",
"....................",
"....................",
"....................",
"....................",
"....................",
"...................."};
