/* XPM */
static char * maximize_pressed_xpm[] = {
"20 30 50 1",
" 	c None",
".	c #4B0082",
"+	c #474B78",
"@	c #3D845D",
"#	c #369D45",
"$	c #32A834",
"%	c #3D855E",
"&	c #474C78",
"*	c #4A1E80",
"=	c #3D875C",
"-	c #2FAC2F",
";	c #2CBA36",
">	c #29C33C",
",	c #28C73F",
"'	c #2FAC30",
")	c #3D855D",
"!	c #4A1981",
"~	c #38954E",
"{	c #2DB532",
"]	c #28C83F",
"^	c #28C940",
"/	c #2DB533",
"(	c #39954F",
"_	c #3C875C",
":	c #3E865D",
"<	c #29C73E",
"[	c #2FAD2F",
"}	c #22B334",
"|	c #16931F",
"1	c #22B434",
"2	c #2CBA37",
"3	c #3E835E",
"4	c #369E44",
"5	c #2AC43C",
"6	c #0C7409",
"7	c #0B7407",
"8	c #369C45",
"9	c #32A734",
"0	c #16921E",
"a	c #32A735",
"b	c #17931F",
"c	c #0C7509",
"d	c #22B534",
"e	c #29C73F",
"f	c #2FAD30",
"g	c #474979",
"h	c #2EB533",
"i	c #39944F",
"j	c #4B1281",
"k	c #29C43C",
"....................",
"....................",
"....................",
"....................",
"....................",
"....................",
"....................",
"......+@#$$#%&......",
"....*=-;>,,>;')!....",
"...*~{]^^^^^^]/(!...",
"..._{^^^^^^^^^^/:...",
"..+-]^^^^^^^^^^<[+..",
"..@;^^^^}||1^^^^23..",
"..45^^^}67761^^^>8..",
"..9]^^^07777|^^^]a..",
"..a]^^^|7777b^^^<a..",
"..4>^^^1677cd^^^>8..",
"..%;^^^^1||d^^^^;3..",
"..&']^^^^^^^^^^efg..",
"...)/^^^^^^^^^^h@...",
"...!~/<^^^^^^ehij...",
"....!:[2k]]k;f@j....",
"......+389983g......",
"....................",
"....................",
"....................",
"....................",
"....................",
"....................",
"...................."};
