/* XPM */
static char * top_right_inactive_xpm[] = {
"2 30 2 1",
" 	c None",
".	c #4B0082",
". ",
"..",
"..",
"..",
"..",
"..",
"..",
"..",
"..",
"..",
"..",
"..",
"..",
"..",
"..",
"..",
"..",
"..",
"..",
"..",
"..",
"..",
"..",
"..",
"..",
"..",
"..",
"..",
"..",
".."};
