/* XPM */
static char * title_4_inactive_xpm[] = {
"5 30 2 1",
" 	c None",
".	c #FAFAFA",
".....",
".....",
".....",
".....",
".....",
".....",
".....",
".....",
".....",
".....",
".....",
".....",
".....",
".....",
".....",
".....",
".....",
".....",
".....",
".....",
".....",
".....",
".....",
".....",
".....",
".....",
".....",
".....",
".....",
"....."};
